Health Forecasting
…
If we assume that the distribution of the possible future values follows a normal distribution, we can now propose confidence intervals on our predictions. Here, we propose to visualize 80% and 95% confidence intervals and compare it with your observed data. We can assume that our confidence intervals may be inaccurate, as the normal distribution assumption may not be very appropriate, regarding the histogram of the residuals.

train %>%
  model(NAIVE(hospitalizedCurrently)) %>%
  forecast(h = 30) %>%
  hilo()

## # A tsibble: 30 x 6 [1D]
## # Key:       .model [1]
##    .model             date       hospitalizedCurre .mean                  `80%`
##    <chr>              <date>                 <dist> <dbl>                 <hilo>
##  1 NAIVE(hospitalize 2021-02-07       N(538, 1378)   538 [490.4312, 585.5688]80
##  2 NAIVE(hospitalize 2021-02-08       N(538, 2756)   538 [470.7275, 605.2725]80
##  3 NAIVE(hospitalize 2021-02-09       N(538, 4133)   538 [455.6084, 620.3916]80
##  4 NAIVE(hospitalize 2021-02-10       N(538, 5511)   538 [442.8624, 633.1376]80
##  5 NAIVE(hospitalize 2021-02-11       N(538, 6889)   538 [431.6329, 644.3671]80
##  6 NAIVE(hospitalize 2021-02-12       N(538, 8267)   538 [421.4807, 654.5193]80
##  7 NAIVE(hospitalize 2021-02-13       N(538, 9644)   538 [412.1447, 663.8553]80
##  8 NAIVE(hospitalize 2021-02-14      N(538, 11022)   538 [403.4551, 672.5449]80
##  9 NAIVE(hospitalize 2021-02-15      N(538, 12400)   538 [395.2936, 680.7064]80
## 10 NAIVE(hospitalize 2021-02-16      N(538, 13778)   538 [387.5742, 688.4258]80
## #  with 20 more rows, and 1 more variable: 95% <hilo>
…
